<?xml version="1.0" encoding="utf-8"?>
<!-- Generator: Adobe Illustrator 21.0.0, SVG Export Plug-In . SVG Version: 6.00 Build 0)  -->
<svg version="1.1" id="Layer_1" xmlns="http://www.w3.org/2000/svg" xmlns:xlink="http://www.w3.org/1999/xlink" x="0px" y="0px"
	 viewBox="0 0 824 900" style="enable-background:new 0 0 824 900;" xml:space="preserve">
<style type="text/css">
	.st0{fill:none;}
	.st1{fill:#3F3D56;}
	.st2{fill:#6A6663;}
</style>
<rect y="0" class="st0" width="824" height="900"/>
<path class="st1" d="M99.4,363.9c0-2.4-0.9-4.3-2.6-5.6c-1.7-1.3-4.7-2.7-9-4.2c-4.3-1.4-7.8-2.8-10.5-4.2
	c-8.8-4.3-13.3-10.3-13.3-17.9c0-3.8,1.1-7.1,3.3-10c2.2-2.9,5.3-5.2,9.4-6.8c4-1.6,8.6-2.4,13.6-2.4c4.9,0,9.3,0.9,13.2,2.6
	c3.9,1.8,6.9,4.3,9.1,7.5c2.2,3.2,3.2,6.9,3.2,11.1H99.4c0-2.8-0.9-4.9-2.6-6.5c-1.7-1.5-4-2.3-6.9-2.3c-2.9,0-5.3,0.7-7,2
	c-1.7,1.3-2.5,2.9-2.5,4.9c0,1.8,0.9,3.3,2.8,4.8c1.9,1.4,5.2,2.9,9.9,4.4c4.7,1.5,8.6,3.1,11.6,4.9c7.4,4.3,11.1,10.1,11.1,17.6
	c0,6-2.3,10.7-6.8,14.1s-10.7,5.1-18.5,5.1c-5.5,0-10.5-1-15-3c-4.5-2-7.8-4.7-10.1-8.2c-2.3-3.5-3.4-7.5-3.4-12h16.5
	c0,3.7,0.9,6.4,2.8,8.1c1.9,1.7,5,2.6,9.2,2.6c2.7,0,4.9-0.6,6.4-1.7C98.6,367.6,99.4,366,99.4,363.9z M176.8,382h-16.4v-68.3h16.4
	V382z M244.9,313.8l15.2,47.5l15.2-47.5H297V382h-16.5v-15.9l1.6-32.6L265.6,382h-10.9l-16.5-48.6l1.6,32.7V382h-16.5v-68.3H244.9z
	 M382.1,369.3h-22.5l-3.9,12.8h-17.6l25-68.3h15.5l25.2,68.3h-17.7L382.1,369.3z M363.5,356.5h14.7l-7.4-23.7L363.5,356.5z
	 M467.1,356.6l-6.8,7.4v18h-16.5v-68.3h16.5v30.1l5.7-8.7l14.7-21.4h20.3L478,343.9l23.1,38.1h-19.5L467.1,356.6z M596.6,349.3
	c0,6.7-1.2,12.5-3.7,17.7c-2.5,5.1-6,9.1-10.5,11.9c-4.5,2.8-9.7,4.1-15.5,4.1c-5.8,0-11-1.3-15.5-4c-4.5-2.7-8-6.5-10.5-11.5
	c-2.5-5-3.8-10.7-3.9-17.1v-3.8c0-6.7,1.2-12.6,3.7-17.7c2.5-5.1,6-9.1,10.5-11.9c4.6-2.8,9.8-4.2,15.7-4.2c5.8,0,10.9,1.4,15.5,4.1
	s8,6.7,10.5,11.8c2.5,5.1,3.8,10.9,3.8,17.4V349.3z M579.9,346.4c0-6.8-1.1-11.9-3.4-15.4c-2.3-3.5-5.5-5.3-9.7-5.3
	c-8.3,0-12.6,6.2-13.1,18.6l0,5c0,6.7,1.1,11.8,3.3,15.4c2.2,3.6,5.5,5.4,9.9,5.4c4.2,0,7.4-1.8,9.6-5.3s3.4-8.6,3.4-15.2V346.4z"/>
<path class="st2" d="M67.2,416.1c-2.3-0.6-3.9-1.4-4.9-2.4c-1-0.9-1.5-2.1-1.5-3.5c0-1.6,0.6-2.9,1.9-3.9c1.3-1,2.9-1.5,4.9-1.5
	c1.4,0,2.6,0.3,3.7,0.8c1.1,0.5,1.9,1.3,2.5,2.2c0.6,0.9,0.9,1.9,0.9,3h-2.6c0-1.2-0.4-2.1-1.1-2.8c-0.8-0.7-1.8-1-3.2-1
	c-1.3,0-2.3,0.3-3,0.9c-0.7,0.6-1.1,1.4-1.1,2.4c0,0.8,0.3,1.5,1,2.1c0.7,0.6,1.9,1.1,3.5,1.5c1.7,0.5,3,1,3.9,1.5
	c0.9,0.6,1.6,1.2,2.1,2c0.5,0.7,0.7,1.6,0.7,2.6c0,1.6-0.6,2.9-1.9,3.9c-1.3,1-2.9,1.4-5,1.4c-1.4,0-2.6-0.3-3.8-0.8
	c-1.2-0.5-2.1-1.2-2.7-2.2c-0.6-0.9-1-1.9-1-3.1h2.6c0,1.2,0.4,2.2,1.3,2.9c0.9,0.7,2.1,1,3.6,1c1.4,0,2.4-0.3,3.2-0.8
	s1.1-1.3,1.1-2.3c0-1-0.3-1.7-1-2.3C70.2,417.2,69,416.6,67.2,416.1z M80.8,425h-2.6v-19.9h2.6V425z M91.4,416.1
	c-2.3-0.6-3.9-1.4-4.9-2.4c-1-0.9-1.5-2.1-1.5-3.5c0-1.6,0.6-2.9,1.9-3.9c1.3-1,2.9-1.5,4.9-1.5c1.4,0,2.6,0.3,3.7,0.8
	c1.1,0.5,1.9,1.3,2.5,2.2c0.6,0.9,0.9,1.9,0.9,3h-2.6c0-1.2-0.4-2.1-1.1-2.8c-0.8-0.7-1.8-1-3.2-1c-1.3,0-2.3,0.3-3,0.9
	c-0.7,0.6-1.1,1.4-1.1,2.4c0,0.8,0.3,1.5,1,2.1c0.7,0.6,1.9,1.1,3.5,1.5c1.7,0.5,3,1,3.9,1.5c0.9,0.6,1.6,1.2,2.1,2
	c0.5,0.7,0.7,1.6,0.7,2.6c0,1.6-0.6,2.9-1.9,3.9c-1.3,1-2.9,1.4-5,1.4c-1.4,0-2.6-0.3-3.8-0.8c-1.2-0.5-2.1-1.2-2.7-2.2
	c-0.6-0.9-1-1.9-1-3.1H87c0,1.2,0.4,2.2,1.3,2.9c0.9,0.7,2.1,1,3.6,1c1.4,0,2.4-0.3,3.2-0.8c0.7-0.6,1.1-1.3,1.1-2.3
	c0-1-0.3-1.7-1-2.3C94.5,417.2,93.2,416.6,91.4,416.1z M115.9,407.3h-6.4V425h-2.6v-17.7h-6.4v-2.2h15.4V407.3z M130.1,415.8h-8.6
	v7.1h10v2.1h-12.6v-19.9h12.5v2.2h-9.9v6.4h8.6V415.8z M138.2,405.1l6.5,16.2l6.5-16.2h3.4V425H152v-7.8l0.2-8.4l-6.5,16.1h-2
	l-6.5-16.1l0.3,8.3v7.8h-2.6v-19.9H138.2z M169,425h-2.6v-19.9h2.6V425z M189.1,425h-2.6l-10-15.3V425h-2.6v-19.9h2.6l10,15.4v-15.4
	h2.6V425z M204.8,416.2h-8.4v8.8h-2.6v-19.9h12.3v2.2h-9.7v6.8h8.4V416.2z M224.6,415.7c0,2-0.3,3.7-1,5.1c-0.7,1.4-1.6,2.6-2.8,3.3
	c-1.2,0.8-2.6,1.1-4.2,1.1c-1.6,0-3-0.4-4.2-1.1c-1.2-0.8-2.2-1.9-2.8-3.3c-0.7-1.4-1-3.1-1-5v-1.4c0-1.9,0.3-3.6,1-5.1
	c0.7-1.5,1.6-2.6,2.8-3.4c1.2-0.8,2.6-1.2,4.2-1.2c1.6,0,3,0.4,4.2,1.2c1.2,0.8,2.2,1.9,2.8,3.4c0.7,1.5,1,3.2,1,5.1V415.7z
	 M222,414.4c0-2.4-0.5-4.2-1.4-5.4c-0.9-1.3-2.3-1.9-4-1.9c-1.7,0-3,0.6-3.9,1.9c-0.9,1.3-1.4,3-1.5,5.3v1.5c0,2.3,0.5,4.1,1.4,5.4
	c1,1.3,2.3,2,4,2c1.7,0,3-0.6,3.9-1.8c0.9-1.2,1.4-3,1.4-5.3V414.4z M235.8,416.9h-4.7v8.1h-2.6v-19.9h6.6c2.2,0,4,0.5,5.2,1.5
	c1.2,1,1.8,2.5,1.8,4.5c0,1.2-0.3,2.3-1,3.2c-0.7,0.9-1.6,1.6-2.8,2.1l4.7,8.4v0.2h-2.8L235.8,416.9z M231.1,414.8h4
	c1.3,0,2.3-0.3,3.1-1c0.8-0.7,1.2-1.6,1.2-2.7c0-1.2-0.4-2.2-1.1-2.8c-0.7-0.7-1.8-1-3.2-1h-4V414.8z M249.2,405.1l6.5,16.2
	l6.5-16.2h3.4V425H263v-7.8l0.2-8.4l-6.5,16.1h-2l-6.5-16.1l0.3,8.3v7.8h-2.6v-19.9H249.2z M281.5,419.8h-8.3l-1.9,5.2h-2.7
	l7.6-19.9h2.3L286,425h-2.7L281.5,419.8z M273.9,417.6h6.8l-3.4-9.3L273.9,417.6z M294.6,416.1c-2.3-0.6-3.9-1.4-4.9-2.4
	c-1-0.9-1.5-2.1-1.5-3.5c0-1.6,0.6-2.9,1.9-3.9c1.3-1,2.9-1.5,4.9-1.5c1.4,0,2.6,0.3,3.7,0.8c1.1,0.5,1.9,1.3,2.5,2.2
	c0.6,0.9,0.9,1.9,0.9,3h-2.6c0-1.2-0.4-2.1-1.1-2.8c-0.8-0.7-1.8-1-3.2-1c-1.3,0-2.3,0.3-3,0.9c-0.7,0.6-1.1,1.4-1.1,2.4
	c0,0.8,0.3,1.5,1,2.1c0.7,0.6,1.9,1.1,3.5,1.5c1.7,0.5,3,1,3.9,1.5c0.9,0.6,1.6,1.2,2.1,2c0.5,0.7,0.7,1.6,0.7,2.6
	c0,1.6-0.6,2.9-1.9,3.9c-1.3,1-2.9,1.4-5,1.4c-1.4,0-2.6-0.3-3.8-0.8c-1.2-0.5-2.1-1.2-2.7-2.2c-0.6-0.9-1-1.9-1-3.1h2.6
	c0,1.2,0.4,2.2,1.3,2.9c0.9,0.7,2.1,1,3.6,1c1.4,0,2.4-0.3,3.2-0.8c0.7-0.6,1.1-1.3,1.1-2.3c0-1-0.3-1.7-1-2.3
	C297.6,417.2,296.4,416.6,294.6,416.1z M308.2,425h-2.6v-19.9h2.6V425z M323.3,405.1l6.5,16.2l6.5-16.2h3.4V425h-2.6v-7.8l0.2-8.4
	l-6.5,16.1h-2l-6.5-16.1l0.3,8.3v7.8h-2.6v-19.9H323.3z M355.6,419.8h-8.3l-1.9,5.2h-2.7l7.6-19.9h2.3l7.6,19.9h-2.7L355.6,419.8z
	 M348.1,417.6h6.8l-3.4-9.3L348.1,417.6z M378.2,425h-2.6l-10-15.3V425h-2.6v-19.9h2.6l10,15.4v-15.4h2.6V425z M394.1,419.8h-8.3
	l-1.9,5.2h-2.7l7.6-19.9h2.3l7.6,19.9H396L394.1,419.8z M386.5,417.6h6.8l-3.4-9.3L386.5,417.6z M409.7,405.1h2.6v14.1
	c0,1.9-0.6,3.4-1.7,4.5c-1.1,1.1-2.7,1.6-4.6,1.6c-2,0-3.5-0.5-4.6-1.5c-1.1-1-1.7-2.4-1.7-4.3h2.6c0,1.1,0.3,2,0.9,2.7
	c0.6,0.6,1.5,1,2.7,1c1.1,0,2-0.3,2.6-1c0.7-0.7,1-1.6,1-2.9V405.1z M428.1,415.8h-8.6v7.1h10v2.1h-12.6v-19.9h12.5v2.2h-9.9v6.4
	h8.6V415.8z M436.1,405.1l6.5,16.2l6.5-16.2h3.4V425h-2.6v-7.8l0.2-8.4l-6.5,16.1h-2l-6.5-16.1l0.3,8.3v7.8h-2.6v-19.9H436.1z
	 M468.4,415.8h-8.6v7.1h10v2.1h-12.6v-19.9h12.5v2.2h-9.9v6.4h8.6V415.8z M488.4,425h-2.6l-10-15.3V425h-2.6v-19.9h2.6l10,15.4
	v-15.4h2.6V425z M507.3,416.9h-4.7v8.1H500v-19.9h6.6c2.2,0,4,0.5,5.2,1.5c1.2,1,1.8,2.5,1.8,4.5c0,1.2-0.3,2.3-1,3.2
	c-0.7,0.9-1.6,1.6-2.8,2.1l4.7,8.4v0.2h-2.8L507.3,416.9z M502.6,414.8h4c1.3,0,2.3-0.3,3.1-1c0.8-0.7,1.2-1.6,1.2-2.7
	c0-1.2-0.4-2.2-1.1-2.8c-0.7-0.7-1.8-1-3.2-1h-4V414.8z M520.1,425h-2.6v-19.9h2.6V425z M530.7,416.1c-2.3-0.6-3.9-1.4-4.9-2.4
	c-1-0.9-1.5-2.1-1.5-3.5c0-1.6,0.6-2.9,1.9-3.9c1.3-1,2.9-1.5,4.9-1.5c1.4,0,2.6,0.3,3.6,0.8c1.1,0.5,1.9,1.3,2.5,2.2
	c0.6,0.9,0.9,1.9,0.9,3h-2.6c0-1.2-0.4-2.1-1.1-2.8c-0.8-0.7-1.8-1-3.2-1c-1.3,0-2.3,0.3-3,0.9c-0.7,0.6-1.1,1.4-1.1,2.4
	c0,0.8,0.3,1.5,1,2.1c0.7,0.6,1.9,1.1,3.5,1.5c1.7,0.5,3,1,3.9,1.5c0.9,0.6,1.6,1.2,2.1,2c0.5,0.7,0.7,1.6,0.7,2.6
	c0,1.6-0.6,2.9-1.9,3.9c-1.3,1-2.9,1.4-5,1.4c-1.4,0-2.6-0.3-3.8-0.8c-1.2-0.5-2.1-1.2-2.7-2.2c-0.6-0.9-1-1.9-1-3.1h2.6
	c0,1.2,0.4,2.2,1.3,2.9c0.9,0.7,2.1,1,3.6,1c1.4,0,2.4-0.3,3.2-0.8c0.7-0.6,1.1-1.3,1.1-2.3c0-1-0.3-1.7-1-2.3
	C533.8,417.2,532.5,416.6,530.7,416.1z M544.3,425h-2.6v-19.9h2.6V425z M554.2,415.7l-2.4,2.5v6.7h-2.6v-19.9h2.6v9.8l8.8-9.8h3.2
	l-7.8,8.8l8.4,11.1h-3.1L554.2,415.7z M581.6,415.7c0,2-0.3,3.7-1,5.1c-0.7,1.4-1.6,2.6-2.8,3.3s-2.6,1.1-4.2,1.1
	c-1.6,0-3-0.4-4.2-1.1c-1.2-0.8-2.2-1.9-2.8-3.3c-0.7-1.4-1-3.1-1-5v-1.4c0-1.9,0.3-3.6,1-5.1c0.7-1.5,1.6-2.6,2.8-3.4
	c1.2-0.8,2.6-1.2,4.2-1.2c1.6,0,3,0.4,4.2,1.2c1.2,0.8,2.2,1.9,2.8,3.4c0.7,1.5,1,3.2,1,5.1V415.7z M578.9,414.4
	c0-2.4-0.5-4.2-1.4-5.4c-0.9-1.3-2.3-1.9-4-1.9c-1.7,0-3,0.6-3.9,1.9c-0.9,1.3-1.4,3-1.5,5.3v1.5c0,2.3,0.5,4.1,1.4,5.4
	c1,1.3,2.3,2,4,2c1.7,0,3-0.6,3.9-1.8c0.9-1.2,1.4-3,1.4-5.3V414.4z"/>
</svg>
